signaltap/load_from_sdram_works.vcd
$comment
Copyright (C) 1991-2013 Altera Corporation
Your use of Altera Corporation's design tools, logic functions 
and other software and tools, and its AMPP partner logic 
functions, and any output files from any of the foregoing 
(including device programming or simulation files), and any 
associated documentation or information are expressly subject 
to the terms and conditions of the Altera Program License 
Subscription Agreement, Altera MegaCore Function License 
Agreement, or other applicable license agreement, including, 
without limitation, that your use is for the sole purpose of 
programming logic devices manufactured by Altera and sold by 
Altera or its authorized distributors.  Please refer to the 
applicable agreement for further details.
$end

$date 
  11/26/2015 23:48:15 
$end
$version 
 QUARTUS_VCD_EXPORT 1.0 
$end
$timescale
  1 ps
$end
$scope module STORM_TOP_INST $end
$var reg 32 ! WB_ADR_O[31:0] $end
$var reg 32 " WB_DATA_I[31:0] $end
$var reg 32 # WB_DATA_O[31:0] $end
$var reg 1 $ WB_WE_O $end
$var reg 3 % WB_CTI_O[2:0] $end
$var reg 1 & WB_ACK_I $end
$var reg 1 ' WB_CYC_O $end
$var reg 1 ( WB_ERR_I $end
$var reg 1 ) WB_HALT_I $end
$var reg 4 * WB_SEL_O[3:0] $end
$var reg 7 + WB_TGC_O[6:0] $end
$upscope $end
$scope module SYSCON_CLK $end
$var reg 1 , c0 $end
$upscope $end
$var reg 1 - SDRAM_MEM_STB_I $end
$var reg 1 . INT_MEM_STB_I $end
$var reg 1 / BOOT_ROM_STB_I $end
$enddefinitions $end
#0
$dumpvars
bX !
bX "
bX #
X$
bX %
X&
X'
X(
X)
bX *
bX +
0,
X-
X.
X/
$end
#10000
$comment Sample --1 (Start) $end
b1000000000000000000000000 !
b0 "
b1011010010110100101101001011010 #
1$
b0 %
0&
1'
0(
0)
b1111 *
b1011111 +
1,
1-
0.
0/
#20000
0,
#30000
1&
1,
#40000
0,
#50000
0&
1,
#60000
0,
#70000
1&
0'
1,
0-
#80000
0,
#90000
b100111111100 #
0$
0&
1'
1,
1-
#100000
0,
#110000
1,
#120000
0,
#130000
1,
#140000
0,
#150000
1,
#160000
0,
#170000
1,
#180000
0,
#190000
1,
#200000
0,
#210000
1,
#220000
0,
#230000
b1011010010110100101101001011010 "
1,
#240000
0,
#250000
1,
#260000
0,
#270000
1&
1,
#280000
0,
#290000
0&
1,
#300000
0,
#310000
b0 "
1&
0'
1,
0-
#320000
0,
#330000
b1000000000000000000000100 !
b1011010010110100101101001011010 "
b101000000010 #
0&
1'
1,
1-
#340000
0,
#350000
b11101010000000000000000001100010 "
1&
1,
#360000
0,
#370000
0&
1,
#380000
0,
#390000
b0 "
1&
0'
1,
0-
#400000
0,
#410000
b1000000000000000000001000 !
b1011010010110100101101001011010 "
0&
1'
1,
1-
#420000
0,
#430000
b11101010000000000000000001010101 "
1&
1,
#440000
0,
#450000
0&
1,
#460000
0,
#470000
b0 "
1&
0'
1,
0-
#480000
0,
#490000
b1000000000000000000001100 !
b1011010010110100101101001011010 "
0&
1'
1,
1-
#500000
0,
#510000
b11101010000000000000000001001000 "
1&
1,
#520000
0,
#530000
0&
1,
#540000
0,
#550000
b0 "
1&
0'
1,
0-
#560000
0,
#570000
b1000000000000000000010000 !
b1011010010110100101101001011010 "
0&
1'
1,
1-
#580000
0,
#590000
b11101010000000000000000001000111 "
1&
1,
#600000
0,
#610000
0&
1,
#620000
0,
#630000
b0 "
1&
0'
1,
0-
#640000
0,
#650000
b1000000000000000000010100 !
b1011010010110100101101001011010 "
0&
1'
1,
1-
#660000
0,
#670000
b11100001101000000000000000000000 "
1&
1,
#680000
0,
#690000
0&
1,
#700000
0,
#710000
b0 "
1&
0'
1,
0-
#720000
0,
#730000
b1000000000000000000011000 !
b1011010010110100101101001011010 "
0&
1'
1,
1-
#740000
0,
#750000
b11100101000111111111111111110000 "
1&
1,
#760000
0,
#770000
0&
1,
#780000
0,
#790000
b0 "
1&
0'
1,
0-
#800000
0,
#810000
b1000000000000000000011100 !
b1011010010110100101101001011010 "
0&
1'
1,
1-
#820000
0,
#830000
b11100101000111111111111111110000 "
1&
1,
#840000
0,
#850000
0&
1,
#860000
0,
#870000
b0 "
1&
0'
1,
0-
#880000
0,
#890000
b1000000000000000000100000 !
b1011010010110100101101001011010 "
0&
1'
1,
1-
#900000
0,
#910000
1,
#920000
0,
#930000
1,
#940000
0,
#950000
1,
#960000
0,
#970000
1,
#980000
0,
#990000
1,
#1000000
0,
#1010000
1,
#1020000
0,
#1030000
1,
#1040000
0,
#1050000
b1000000000000000000111000 "
1,
#1060000
0,
#1070000
1,
#1080000
0,
#1090000
1&
1,
#1100000
0,
#1110000
0&
1,
#1120000
0,
#1130000
b0 "
1&
0'
1,
0-
#1140000
0,
#1150000
b1000000000000000000100100 !
b1000000000000000000111000 "
0&
1'
1,
1-
#1160000
0,
#1170000
b1000000000000000000111100 "
1&
1,
#1180000
0,
#1190000
0&
1,
#1200000
0,
#1210000
b0 "
1&
0'
1,
0-
#1220000
0,
#1230000
b1000000000000000000101000 !
b1000000000000000000111000 "
0&
1'
1,
1-
#1240000
0,
#1250000
b1000000000000000001000000 "
1&
1,
#1260000
0,
#1270000
0&
1,
#1280000
0,
#1290000
b0 "
1&
0'
1,
0-
#1300000
0,
#1310000
b1000000000000000000101100 !
b1000000000000000000111000 "
0&
1'
1,
1-
#1320000
0,
#1330000
b1000000000000000001000100 "
1&
1,
#1340000
0,
#1350000
0&
1,
#1360000
0,
#1370000
b0 "
1&
0'
1,
0-
#1380000
0,
#1390000
b1000000000000000000110000 !
b1000000000000000000111000 "
0&
1'
1,
1-
#1400000
0,
#1410000
b1000000000000000001001000 "
1&
1,
#1420000
0,
#1430000
0&
1,
#1440000
0,
#1450000
b0 "
1&
0'
1,
0-
#1460000
0,
#1470000
b1000000000000000000110100 !
b1000000000000000000111000 "
0&
1'
1,
1-
#1480000
0,
#1490000
b1000000000000000001001100 "
1&
1,
#1500000
0,
#1510000
0&
1,
#1520000
0,
#1530000
b0 "
1&
0'
1,
0-
#1540000
0,
#1550000
b1000000000000000000111000 !
b1000000000000000000111000 "
0&
1'
1,
1-
#1560000
0,
#1570000
b11101010111111111111111111111110 "
1&
1,
#1580000
0,
#1590000
0&
1,
#1600000
0,
#1610000
b0 "
1&
0'
1,
0-
#1620000
0,
#1630000
b1000000000000000000111100 !
b1000000000000000000111000 "
0&
1'
1,
1-
#1640000
0,
#1650000
b11101010111111111111111111111110 "
1&
1,
#1660000
0,
#1670000
0&
1,
#1680000
0,
#1690000
b0 "
1&
0'
1,
0-
#1700000
0,
#1710000
b1000000000000000001000000 !
b1000000000000000000111000 "
0&
1'
1,
1-
#1720000
0,
#1730000
1,
#1740000
0,
#1750000
1,
#1760000
0,
#1770000
1,
#1780000
0,
#1790000
1,
#1800000
0,
#1810000
1,
#1820000
0,
#1830000
1,
#1840000
0,
#1850000
1,
#1860000
0,
#1870000
b11101010111111111111111111111110 "
1,
#1880000
0,
#1890000
1,
#1900000
0,
#1910000
1&
1,
#1920000
0,
#1930000
0&
1,
#1940000
0,
#1950000
b0 "
1&
0'
1,
0-
#1960000
0,
#1970000
b1000000000000000001000100 !
b11101010111111111111111111111110 "
0&
1'
1,
1-
#1980000
0,
#1990000
1&
1,
#2000000
0,
#2010000
0&
1,
#2020000
0,
#2030000
b0 "
1&
0'
1,
0-
#2040000
0,
#2050000
b1000000000000000001001000 !
b11101010111111111111111111111110 "
0&
1'
1,
1-
#2060000
0,
#2070000
1&
1,
#2080000
0,
#2090000
0&
1,
#2100000
0,
#2110000
b0 "
1&
0'
1,
0-
#2120000
0,
#2130000
b1000000000000000001001100 !
b11101010111111111111111111111110 "
0&
1'
1,
1-
#2140000
0,
#2150000
1&
1,
#2160000
0,
#2170000
0&
1,
#2180000
0,
#2190000
b0 "
1&
0'
1,
0-
#2200000
0,
#2210000
b1000000000000000001010000 !
b11101010111111111111111111111110 "
0&
1'
1,
1-
#2220000
0,
#2230000
b11100101100111110000001000101000 "
1&
1,
#2240000
0,
#2250000
0&
1,
#2260000
0,
#2270000
b0 "
1&
0'
1,
0-
#2280000
0,
#2290000
b1000000000000000001010100 !
b11101010111111111111111111111110 "
0&
1'
1,
1-
#2300000
0,
#2310000
b11100001000011110001000000000000 "
1&
1,
#2320000
0,
#2330000
0&
1,
#2340000
0,
#2350000
b0 "
1&
0'
1,
0-
#2360000
0,
#2370000
b1000000000000000001011000 !
b11101010111111111111111111111110 "
0&
1'
1,
1-
#2380000
0,
#2390000
b11100011110000010001000001111111 "
1&
1,
#2400000
0,
#2410000
0&
1,
#2420000
0,
#2430000
b0 "
1&
0'
1,
0-
#2440000
0,
#2450000
b1000000000000000001011100 !
b11101010111111111111111111111110 "
0&
1'
1,
1-
#2460000
0,
#2470000
b11100011100000010001000011011011 "
1&
1,
#2480000
0,
#2490000
0&
1,
#2500000
0,
#2510000
b0 "
1&
0'
1,
0-
#2520000
0,
#2530000
b1000000000000000001100000 !
b11101010111111111111111111111110 "
0&
1'
1,
1-
#2540000
0,
#2550000
1,
#2560000
0,
#2570000
1,
#2580000
0,
#2590000
1,
#2600000
0,
#2610000
1,
#2620000
0,
#2630000
1,
#2640000
0,
#2650000
1,
#2660000
0,
#2670000
1,
#2680000
0,
#2690000
b11100001001010011111000000000001 "
1,
#2700000
0,
#2710000
1,
#2720000
0,
#2730000
1&
1,
#2740000
0,
#2750000
0&
1,
#2760000
0,
#2770000
b0 "
1&
0'
1,
0-
#2780000
0,
#2790000
b1000000000000000001100100 !
b11100001001010011111000000000001 "
0&
1'
1,
1-
#2800000
0,
#2810000
b11100001101000001101000000000000 "
1&
1,
#2820000
0,
#2830000
0&
1,
#2840000
0,
#2850000
b0 "
1&
0'
1,
0-
#2860000
0,
#2870000
b1000000000000000001101000 !
b11100001001010011111000000000001 "
0&
1'
1,
1-
#2880000
0,
#2890000
b11100010010000000000000000000100 "
1&
1,
#2900000
0,
#2910000
0&
1,
#2920000
0,
#2930000
b0 "
1&
0'
1,
0-
#2940000
0,
#2950000
b1000000000000000001101100 !
b11100001001010011111000000000001 "
0&
1'
1,
1-
#2960000
0,
#2970000
b11100001000011110001000000000000 "
1&
1,
#2980000
0,
#2990000
0&
1,
#3000000
0,
#3010000
b0 "
1&
0'
1,
0-
#3020000
0,
#3030000
b1000000000000000001110000 !
b11100001001010011111000000000001 "
0&
1'
1,
1-
#3040000
0,
#3050000
b11100011110000010001000001111111 "
1&
1,
#3060000
0,
#3070000
0&
1,
#3080000
0,
#3090000
b0 "
1&
0'
1,
0-
#3100000
0,
#3110000
b1000000000000000001110100 !
b11100001001010011111000000000001 "
0&
1'
1,
1-
#3120000
0,
#3130000
b11100011100000010001000011010111 "
1&
1,
#3140000
0,
#3150000
0&
1,
#3160000
0,
#3170000
b0 "
1&
0'
1,
0-
#3180000
0,
#3190000
b1000000000000000001111000 !
b11100001001010011111000000000001 "
0&
1'
1,
1-
#3200000
0,
#3210000
1&
1,
#3220000
0,
#3230000
0&
1,
#3240000
0,
#3250000
b0 "
1&
0'
1,
0-
#3260000
0,
#3270000
b1000000000000000001111100 !
b11100001001010011111000000000001 "
0&
1'
1,
1-
#3280000
0,
#3290000
b11100001101000001101000000000000 "
1&
1,
#3300000
0,
#3310000
0&
1,
#3320000
0,
#3330000
b0 "
1&
0'
1,
0-
#3340000
0,
#3350000
b1000000000000000010000000 !
b11100001001010011111000000000001 "
0&
1'
1,
1-
#3360000
0,
#3370000
1,
#3380000
0,
#3390000
1,
#3400000
0,
#3410000
1,
#3420000
0,
#3430000
1,
#3440000
0,
#3450000
1,
#3460000
0,
#3470000
1,
#3480000
0,
#3490000
1,
#3500000
0,
#3510000
b11100010010000000000000000000100 "
1,
#3520000
0,
#3530000
1,
#3540000
0,
#3550000
1&
1,
#3560000
0,
#3570000
0&
1,
#3580000
0,
#3590000
b0 "
1&
0'
1,
0-
#3600000
0,
#3610000
b1000000000000000010000100 !
b11100010010000000000000000000100 "
0&
1'
1,
1-
#3620000
0,
#3630000
b11100001000011110001000000000000 "
1&
1,
#3640000
0,
#3650000
0&
1,
#3660000
0,
#3670000
b0 "
1&
0'
1,
0-
#3680000
0,
#3690000
b1000000000000000010001000 !
b11100010010000000000000000000100 "
0&
1'
1,
1-
#3700000
0,
#3710000
b11100011110000010001000001111111 "
1&
1,
#3720000
0,
#3730000
0&
1,
#3740000
0,
#3750000
b0 "
1&
0'
1,
0-
#3760000
0,
#3770000
b1000000000000000010001100 !
b11100010010000000000000000000100 "
0&
1'
1,
1-
#3780000
0,
#3790000
b11100011100000010001000011010001 "
1&
1,
#3800000
0,
#3810000
0&
1,
#3820000
0,
#3830000
b0 "
1&
0'
1,
0-
#3840000
0,
#3850000
b1000000000000000010010000 !
b11100010010000000000000000000100 "
0&
1'
1,
1-
#3860000
0,
#3870000
b11100001001010011111000000000001 "
1&
1,
#3880000
0,
#3890000
0&
1,
#3900000
0,
#3910000
b0 "
1&
0'
1,
0-
#3920000
0,
#3930000
b1000000000000000010010100 !
b11100010010000000000000000000100 "
0&
1'
1,
1-
#3940000
0,
#3950000
b11100001101000001101000000000000 "
1&
1,
#3960000
0,
#3970000
0&
1,
#3980000
0,
#3990000
b0 "
1&
0'
1,
0-
#4000000
0,
#4010000
b1000000000000000010011000 !
b11100010010000000000000000000100 "
0&
1'
1,
1-
#4020000
0,
#4030000
1&
1,
#4040000
0,
#4050000
0&
1,
#4060000
0,
#4070000
b0 "
1&
0'
1,
0-
#4080000
0,
#4090000
b1000000000000000010011100 !
b11100010010000000000000000000100 "
0&
1'
1,
1-
#4100000
0,
#4110000
b11100001000011110001000000000000 "
1&
1,
#4120000
0,
#4130000
0&
1,
#4140000
0,
#4150000
b0 "
1&
0'
1,
0-
#4160000
0,
#4170000
b1000000000000000010100000 !
b11100010010000000000000000000100 "
0&
1'
1,
1-
#4180000
0,
#4190000
1,
#4200000
0,
#4210000
1,
#4220000
0,
#4230000
1,
#4240000
0,
#4250000
1,
#4260000
0,
#4270000
1,
#4280000
0,
#4290000
1,
#4300000
0,
#4310000
1,
#4320000
0,
#4330000
b11100011110000010001000001111111 "
1,
#4340000
0,
#4350000
1,
#4360000
0,
#4370000
1&
1,
#4380000
0,
#4390000
0&
1,
#4400000
0,
#4410000
b0 "
1&
0'
1,
0-
#4420000
0,
#4430000
b1000000000000000010100100 !
b11100011110000010001000001111111 "
0&
1'
1,
1-
#4440000
0,
#4450000
b11100011100000010001000011010010 "
1&
1,
#4460000
0,
#4470000
0&
1,
#4480000
0,
#4490000
b0 "
1&
0'
1,
0-
#4500000
0,
#4510000
b1000000000000000010101000 !
b11100011110000010001000001111111 "
0&
1'
1,
1-
#4520000
0,
#4530000
b11100001001010011111000000000001 "
1&
1,
#4540000
0,
#4550000
0&
1,
#4560000
0,
#4570000
b0 "
1&
0'
1,
0-
#4580000
0,
#4590000
b1000000000000000010101100 !
b11100011110000010001000001111111 "
0&
1'
1,
1-
#4600000
0,
#4610000
b11100001101000001101000000000000 "
1&
1,
#4620000
0,
#4630000
0&
1,
#4640000
0,
#4650000
b0 "
1&
0'
1,
0-
#4660000
0,
#4670000
b1000000000000000010110000 !
b11100011110000010001000001111111 "
0&
1'
1,
1-
#4680000
0,
#4690000
b11100010010000000000000010000000 "
1&
1,
#4700000
0,
#4710000
0&
1,
#4720000
0,
#4730000
b0 "
1&
0'
1,
0-
#4740000
0,
#4750000
b1000000000000000010110100 !
b11100011110000010001000001111111 "
0&
1'
1,
1-
#4760000
0,
#4770000
b11100001000011110001000000000000 "
1&
1,
#4780000
0,
#4790000
0&
1,
#4800000
0,
#4810000
b0 "
1&
0'
1,
0-
#4820000
0,
#4830000
b1000000000000000010111000 !
b11100011110000010001000001111111 "
0&
1'
1,
1-
#4840000
0,
#4850000
1&
1,
#4860000
0,
#4870000
0&
1,
#4880000
0,
#4890000
b0 "
1&
0'
1,
0-
#4900000
0,
#4910000
b1000000000000000010111100 !
b11100011110000010001000001111111 "
0&
1'
1,
1-
#4920000
0,
#4930000
b11100011100000010001000011010011 "
1&
1,
#4940000
0,
#4950000
0&
1,
#4960000
0,
#4970000
b0 "
1&
0'
1,
0-
#4980000
0,
#4990000
b1000000000000000011000000 !
b11100011110000010001000001111111 "
0&
1'
1,
1-
#5000000
0,
#5010000
1,
#5020000
0,
#5030000
1,
#5040000
0,
#5050000
1,
#5060000
0,
#5070000
1,
#5080000
0,
#5090000
1,
#5100000
0,
#5110000
1,
#5120000
0,
#5130000
1,
#5140000
0,
#5150000
b11100001001010011111000000000001 "
1,
#5160000
0,
#5170000
1,
#5180000
0,
#5190000
1&
1,
#5200000
0,
#5210000
0&
1,
#5220000
0,
#5230000
b0 "
1&
0'
1,
0-
#5240000
0,
#5250000
b1000000000000000011000100 !
b11100001001010011111000000000001 "
0&
1'
1,
1-
#5260000
0,
#5270000
b11100001101000001101000000000000 "
1&
1,
#5280000
0,
#5290000
0&
1,
#5300000
0,
#5310000
b0 "
1&
0'
1,
0-
#5320000
0,
#5330000
b1000000000000000011001000 !
b11100001001010011111000000000001 "
0&
1'
1,
1-
#5340000
0,
#5350000
b11100010010000000000000000000100 "
1&
1,
#5360000
0,
#5370000
0&
1,
#5380000
0,
#5390000
b0 "
1&
0'
1,
0-
#5400000
0,
#5410000
b1000000000000000011001100 !
b11100001001010011111000000000001 "
0&
1'
1,
1-
#5420000
0,
#5430000
b11100001000011110001000000000000 "
1&
1,
#5440000
0,
#5450000
0&
1,
#5460000
0,
#5470000
b0 "
1&
0'
1,
0-
#5480000
0,
#5490000
b1000000000000000011010000 !
b11100001001010011111000000000001 "
0&
1'
1,
1-
#5500000
0,
#5510000
b11100011110000010001000001111111 "
1&
1,
#5520000
0,
#5530000
0&
1,
#5540000
0,
#5550000
b0 "
1&
0'
1,
0-
#5560000
0,
#5570000
b1000000000000000011010100 !
b11100001001010011111000000000001 "
0&
1'
1,
1-
#5580000
0,
#5590000
b11100011100000010001000011011111 "
1&
1,
#5600000
0,
#5610000
0&
1,
#5620000
0,
#5630000
b0 "
1&
0'
1,
0-
#5640000
0,
#5650000
b1000000000000000011011000 !
b11100001001010011111000000000001 "
0&
1'
1,
1-
#5660000
0,
#5670000
1&
1,
#5680000
0,
#5690000
0&
1,
#5700000
0,
#5710000
b0 "
1&
0'
1,
0-
#5720000
0,
#5730000
b1000000000000000011011100 !
b11100001001010011111000000000001 "
0&
1'
1,
1-
#5740000
0,
#5750000
b11100001101000001101000000000000 "
1&
1,
#5760000
0,
#5770000
0&
1,
#5780000
0,
#5790000
b0 "
1&
0'
1,
0-
#5800000
0,
#5810000
b1000000000000000011100000 !
b11100001001010011111000000000001 "
0&
1'
1,
1-
#5820000
0,
#5830000
1,
#5840000
0,
#5850000
1,
#5860000
0,
#5870000
1,
#5880000
0,
#5890000
1,
#5900000
0,
#5910000
1,
#5920000
0,
#5930000
1,
#5940000
0,
#5950000
1,
#5960000
0,
#5970000
b11100011101000000000000000000000 "
1,
#5980000
0,
#5990000
1,
#6000000
0,
#6010000
1&
1,
#6020000
0,
#6030000
0&
1,
#6040000
0,
#6050000
b0 "
1&
0'
1,
0-
#6060000
0,
#6070000
b1000000000000000011100100 !
b11100011101000000000000000000000 "
0&
1'
1,
1-
#6080000
0,
#6090000
b11100001101000000001000000000000 "
1&
1,
#6100000
0,
#6110000
0&
1,
#6120000
0,
#6130000
b0 "
1&
0'
1,
0-
#6140000
0,
#6150000
b1000000000000000011101000 !
b11100011101000000000000000000000 "
0&
1'
1,
1-
#6160000
0,
#6170000
b11100001101000000010000000000000 "
1&
1,
#6180000
0,
#6190000
0&
1,
#6200000
0,
#6210000
b0 "
1&
0'
1,
0-
#6220000
0,
#6230000
b1000000000000000011101100 !
b11100011101000000000000000000000 "
0&
1'
1,
1-
#6240000
0,
#6250000
b11100001101000001011000000000000 "
1&
1,
#6260000
0,
#6270000
0&
1,
#6280000
0,
#6290000
b0 "
1&
0'
1,
0-
#6300000
0,
#6310000
b1000000000000000011110000 !
b11100011101000000000000000000000 "
0&
1'
1,
1-
#6320000
0,
#6330000
b11100001101000000111000000000000 "
1&
1,
#6340000
0,
#6350000
0&
1,
#6360000
0,
#6370000
b0 "
1&
0'
1,
0-
#6380000
0,
#6390000
b1000000000000000011110100 !
b11100011101000000000000000000000 "
0&
1'
1,
1-
#6400000
0,
#6410000
b11100101100111111010000110001000 "
1&
1,
#6420000
0,
#6430000
0&
1,
#6440000
0,
#6450000
b0 "
1&
0'
1,
0-
#6460000
0,
#6470000
b1000000000000000011111000 !
b11100011101000000000000000000000 "
0&
1'
1,
1-
#6480000
0,
#6490000
b11100001101000001110000000001111 "
1&
1,
#6500000
0,
#6510000
0&
1,
#6520000
0,
#6530000
b0 "
1&
0'
1,
0-
#6540000
0,
#6550000
b1000000000000000011111100 !
b11100011101000000000000000000000 "
0&
1'
1,
1-
#6560000
0,
#6570000
b11100001101000001111000000001010 "
1&
1,
#6580000
0,
#6590000
0&
1,
#6600000
0,
#6610000
$comment Sample 330 (End) $end
b0 "
1&
0'
1,
0-
#6620000
0,
